…
    -- 加载本地的 MySQL 数据库
    ATTACH 'host=localhost user=root port=3306 database=test' AS mysqldb (TYPE MYSQL);
    use mysqldb;
    show tables;

    # 查询对比
    time mysql -e "select deptno,count(*) from big_emp group by deptno" test
    time ./duckdb testdb -c "select deptno,count(*) from big_emp group by deptno"
    ```

- 参数管理

    ```sql
    select name,value from duckdb_settings();
    ┌────────────────────────────────────┬──────────────────────────────┐
    │                name                │            value             │
    │              varchar               │           varchar            │
    ├────────────────────────────────────┼──────────────────────────────┤
    │ access_mode                        │ automatic                    │
    │ allow_persistent_secrets           │ true                         │
    │ checkpoint_threshold               │ 16.0 MiB                     │
    │ debug_checkpoint_abort             │ none                         │
    │ debug_force_external               │ false                        │
    │ debug_force_no_cross_product       │ false                        │
    │ debug_asof_iejoin                  │ false                        │
    │ prefer_range_joins                 │ false                        │
    │ debug_window_mode                  │ NULL                         │
    │ default_collation                  │                              │
    │ default_order                      │ asc                          │
    │ default_null_order                 │ nulls_last                   │
    │ disabled_filesystems               │                              │
    │ disabled_optimizers                │                              │
    │ enable_external_access             │ true                         │
    │ enable_fsst_vectors                │ false                        │
    │ allow_unsigned_extensions          │ false                        │
    │ allow_unredacted_secrets           │ false                        │
    │ custom_extension_repository        │                              │
    │ autoinstall_extension_repository   │                              │
    │        ·                           │              ·               │
    │        ·                           │              ·               │
    │        ·                           │              ·               │
    │ secret_directory                   │ /root/.duckdb/stored_secrets │
    │ default_secret_storage             │ local_file                   │
    │ temp_directory                     │ duckdbtest.db.tmp            │
    │ threads                            │ 16                           │
    │ username                           │ NULL                         │
    │ arrow_large_buffer_size            │ false                        │
    │ user                               │ NULL                         │
    │ wal_autocheckpoint                 │ 16.0 MiB                     │
    │ worker_threads                     │ 16                           │
    │ allocator_flush_threshold          │ 128.0 MiB                    │
    │ duckdb_api                         │ cli                          │
    │ custom_user_agent                  │                              │
    │ partitioned_write_flush_threshold  │ 524288                       │
    │ mysql_bit1_as_boolean              │ true                         │
    │ mysql_experimental_filter_pushdown │ false                        │
    │ mysql_debug_show_queries           │ false                        │
    │ binary_as_string                   │                              │
    │ Calendar                           │ gregorian                    │
    │ mysql_tinyint1_as_boolean          │ true                         │
    │ TimeZone                           │ Asia/Shanghai                │
    ├────────────────────────────────────┴──────────────────────────────┤
    │ 77 rows (40 shown)                                      2 columns │
…
